<?xml version="1.0" encoding="iso-8859-1"?>
<!-- Generator: Adobe Illustrator 22.0.1, SVG Export Plug-In . SVG Version: 6.00 Build 0)  -->
<svg version="1.1" id="Layer_1" xmlns="http://www.w3.org/2000/svg" xmlns:xlink="http://www.w3.org/1999/xlink" x="0px" y="0px"
	 viewBox="0 0 45.539 92.827" style="enable-background:new 0 0 45.539 92.827;" xml:space="preserve">
<g id="divider_tool">
	<path style="fill:#FFFFFF;" d="M22.245,30.812l-2.79-4.131c-0.13,0.18-0.233,0.383-0.298,0.608L7.562,67.493
		c-1.394,0.473-2.417,1.773-2.456,3.328c-0.023,0.896,0.287,1.724,0.813,2.37L4.56,77.901c-0.183,0.634-0.032,1.284,0.347,1.766
		l-0.957,8.03l3.514-7.556c0.415-0.247,0.74-0.646,0.885-1.146l1.326-4.598c1.495-0.412,2.614-1.763,2.655-3.392
		c0.025-0.971-0.34-1.861-0.948-2.527L22.245,30.812z M8.661,73.145c-1.231-0.031-2.207-1.058-2.176-2.289
		c0.031-1.231,1.058-2.207,2.289-2.176c1.231,0.031,2.207,1.058,2.176,2.289C10.919,72.2,9.892,73.176,8.661,73.145z"/>
	<path style="fill:#FFFFFF;" d="M33.699,68.28c-0.609,0.666-0.973,1.556-0.948,2.527c0.041,1.629,1.16,2.98,2.655,3.392l1.326,4.598
		c0.144,0.5,0.47,0.899,0.885,1.146l3.514,7.556l-0.957-8.03c0.379-0.482,0.53-1.132,0.347-1.766l-1.359-4.711
		c0.526-0.646,0.836-1.474,0.813-2.37c-0.039-1.555-1.063-2.855-2.456-3.328L25.924,27.092c-0.065-0.225-0.168-0.428-0.298-0.608
		l-2.79,4.131L33.699,68.28z M34.13,70.772c-0.031-1.231,0.945-2.258,2.176-2.289c1.231-0.031,2.258,0.945,2.289,2.176
		c0.031,1.231-0.945,2.258-2.176,2.289C35.188,72.979,34.161,72.003,34.13,70.772z"/>
	<path style="fill:#FFFFFF;" d="M22.836,13.115c-5.587,0-10.133,4.546-10.133,10.133c0,3.401,1.686,6.414,4.264,8.252v-2.59
		c-1.418-1.469-2.293-3.465-2.293-5.663c0-4.5,3.661-8.161,8.161-8.161s8.161,3.661,8.161,8.161c0,2.462-1.097,4.671-2.827,6.169
		v2.441c2.878-1.789,4.799-4.979,4.799-8.61C32.969,17.661,28.423,13.115,22.836,13.115z"/>
	<path style="fill:#FFFFFF;" d="M22.639,12.807L22.639,12.807c-1.089,0-1.98-0.891-1.98-1.98V5.915c0-1.089,0.891-1.98,1.98-1.98h0
		c1.089,0,1.98,0.891,1.98,1.98v4.911C24.619,11.916,23.728,12.807,22.639,12.807z"/>
	<path style="fill:#FFFFFF;" d="M35.662,52.427H9.419c-0.386,0-0.701-0.315-0.701-0.701l0,0c0-0.386,0.315-0.701,0.701-0.701h26.243
		c0.386,0,0.701,0.315,0.701,0.701l0,0C36.363,52.112,36.047,52.427,35.662,52.427z"/>
	<path style="fill:#FFFFFF;" d="M22.5,56.992L22.5,56.992c-0.466,0-0.847-0.381-0.847-0.847v-8.589c0-0.466,0.381-0.847,0.847-0.847
		h0c0.466,0,0.847,0.381,0.847,0.847v8.589C23.347,56.611,22.966,56.992,22.5,56.992z"/>
</g>
</svg>
