<?xml version="1.0" encoding="iso-8859-1"?>
<!-- Generator: Adobe Illustrator 22.0.1, SVG Export Plug-In . SVG Version: 6.00 Build 0)  -->
<svg version="1.1" id="Layer_1" xmlns="http://www.w3.org/2000/svg" xmlns:xlink="http://www.w3.org/1999/xlink" x="0px" y="0px"
	 viewBox="0 0 69.039 12.327" style="enable-background:new 0 0 69.039 12.327;" xml:space="preserve">
<g id="pencile">
	
		<rect x="31.303" y="-10.122" transform="matrix(6.123234e-17 -1 1 6.123234e-17 22.2595 41.7953)" style="fill:#FFFFFF;" width="1.448" height="39.78"/>
	
		<rect x="31.303" y="-18.166" transform="matrix(6.123234e-17 -1 1 6.123234e-17 30.3035 33.7514)" style="fill:#FFFFFF;" width="1.448" height="39.78"/>
	
		<rect x="30.499" y="-14.144" transform="matrix(6.123234e-17 -1 1 6.123234e-17 26.2815 37.7734)" style="fill:#FFFFFF;" width="3.057" height="39.78"/>
	<path style="fill:#FFFFFF;" d="M65.265,5.984c0.284-0.106,0.284-0.37,0-0.475l-5.741-2.135L53.145,1v4.746v4.746l6.38-2.373
		L65.265,5.984z"/>
	<path style="fill:#FFFFFF;" d="M8.201,1C5.616,1,3.5,3.136,3.5,5.746s2.116,4.746,4.701,4.746h2.586V1H8.201z"/>
</g>
</svg>
